%!PS-Adobe-3.0 EPSF-3.0
%%DocumentNeededResources: font Helvetica
%%+ font Helvetica-Bold
%%+ font Helvetica-Oblique
%%+ font Helvetica-BoldOblique
%%+ font Symbol
%%Title: R Graphics Output
%%Creator: R Software
%%Pages: (atend)
%%BoundingBox: 0 0 504 504
%%EndComments
%%BeginProlog
/bp  { gs sRGB gs } def
% begin .ps.prolog
/gs  { gsave } bind def
/gr  { grestore } bind def
/ep  { showpage gr gr } bind def
/m   { moveto } bind def
/l  { rlineto } bind def
/np  { newpath } bind def
/cp  { closepath } bind def
/f   { fill } bind def
/o   { stroke } bind def
/c   { newpath 0 360 arc } bind def
/r   { 4 2 roll moveto 1 copy 3 -1 roll exch 0 exch rlineto 0 rlineto -1 mul 0 exch rlineto closepath } bind def
/p1  { stroke } bind def
/p2  { gsave bg fill grestore newpath } bind def
/p3  { gsave bg fill grestore stroke } bind def
/p6  { gsave bg eofill grestore newpath } bind def
/p7  { gsave bg eofill grestore stroke } bind def
/t   { 5 -2 roll moveto gsave rotate
       1 index stringwidth pop
       mul neg 0 rmoveto show grestore } bind def
/ta  { 4 -2 roll moveto gsave rotate show } bind def
/tb  { 2 -1 roll 0 rmoveto show } bind def
/cl  { grestore gsave newpath 3 index 3 index moveto 1 index
       4 -1 roll lineto  exch 1 index lineto lineto
       closepath clip newpath } bind def
/rgb { setrgbcolor } bind def
/s   { scalefont setfont } bind def
% end   .ps.prolog
/sRGB { [ /CIEBasedABC
          << /DecodeLMN
               [ { dup 0.03928 le
                        {12.92321 div}
                        {0.055 add 1.055 div 2.4 exp }
                     ifelse
                 } bind dup dup
               ]
             /MatrixLMN [0.412457 0.212673 0.019334
                         0.357576 0.715152 0.119192
                         0.180437 0.072175 0.950301]
             /WhitePoint [0.9505 1.0 1.0890]
           >>
         ] setcolorspace } bind def
/srgb { setcolor } bind def
% begin encoding
/WinAnsiEncoding [
 /.notdef /.notdef /.notdef /.notdef /.notdef /.notdef /.notdef /.notdef
 /.notdef /.notdef /.notdef /.notdef /.notdef /.notdef /.notdef /.notdef
 /.notdef /.notdef /.notdef /.notdef /.notdef /.notdef /.notdef /.notdef
 /.notdef /.notdef /.notdef /.notdef /.notdef /.notdef /.notdef /.notdef
 /space /exclam /quotedbl /numbersign /dollar /percent /ampersand /quoteright
 /parenleft /parenright /asterisk /plus /comma /minus /period /slash
 /zero /one /two /three /four /five /six /seven
 /eight /nine /colon /semicolon /less /equal /greater /question
 /at /A /B /C /D /E /F /G
 /H /I /J /K /L /M /N /O
 /P /Q /R /S /T /U /V /W
 /X /Y /Z /bracketleft /backslash /bracketright /asciicircum /underscore
 /grave /a /b /c /d /e /f /g
 /h /i /j /k /l /m /n /o
 /p /q /r /s /t /u /v /w
 /x /y /z /braceleft /bar /braceright /asciitilde /.notdef
 /Euro /.notdef /quotesinglbase /florin /quotedblbase /ellipsis /dagger /daggerdbl
 /circumflex /perthousand /Scaron /guilsinglleft /OE /.notdef /Zcaron /.notdef
 /.notdef /quoteleft /quoteright /quotedblleft /quotedblright /bullet /endash /emdash
 /tilde /trademark /scaron /guilsinglright /oe /.notdef /zcaron /Ydieresis
 /space /exclamdown /cent /sterling /currency /yen /brokenbar /section
 /dieresis /copyright /ordfeminine /guillemotleft /logicalnot /hyphen /registered /macron
 /degree /plusminus /twosuperior /threesuperior /acute /mu /paragraph /periodcentered
 /cedilla /onesuperior /ordmasculine /guillemotright /onequarter /onehalf /threequarters /questiondown
 /Agrave /Aacute /Acircumflex /Atilde /Adieresis /Aring /AE /Ccedilla
 /Egrave /Eacute /Ecircumflex /Edieresis /Igrave /Iacute /Icircumflex /Idieresis
 /Eth /Ntilde /Ograve /Oacute /Ocircumflex /Otilde /Odieresis /multiply
 /Oslash /Ugrave /Uacute /Ucircumflex /Udieresis /Yacute /Thorn /germandbls
 /agrave /aacute /acircumflex /atilde /adieresis /aring /ae /ccedilla
 /egrave /eacute /ecircumflex /edieresis /igrave /iacute /icircumflex /idieresis
 /eth /ntilde /ograve /oacute /ocircumflex /otilde /odieresis /divide
 /oslash /ugrave /uacute /ucircumflex /udieresis /yacute /thorn /ydieresis
]
 def
% end encoding
%%IncludeResource: font Helvetica
/Helvetica findfont
dup length dict begin
  {1 index /FID ne {def} {pop pop} ifelse} forall
  /Encoding WinAnsiEncoding def
  currentdict
  end
/Font1 exch definefont pop
%%IncludeResource: font Helvetica-Bold
/Helvetica-Bold findfont
dup length dict begin
  {1 index /FID ne {def} {pop pop} ifelse} forall
  /Encoding WinAnsiEncoding def
  currentdict
  end
/Font2 exch definefont pop
%%IncludeResource: font Helvetica-Oblique
/Helvetica-Oblique findfont
dup length dict begin
  {1 index /FID ne {def} {pop pop} ifelse} forall
  /Encoding WinAnsiEncoding def
  currentdict
  end
/Font3 exch definefont pop
%%IncludeResource: font Helvetica-BoldOblique
/Helvetica-BoldOblique findfont
dup length dict begin
  {1 index /FID ne {def} {pop pop} ifelse} forall
  /Encoding WinAnsiEncoding def
  currentdict
  end
/Font4 exch definefont pop
%%IncludeResource: font Symbol
/Symbol findfont
dup length dict begin
  {1 index /FID ne {def} {pop pop} ifelse} forall
  currentdict
  end
/Font5 exch definefont pop
%%EndProlog
%%Page: 1 1
bp
0.00 0.00 504.00 504.00 cl
0.00 0.00 504.00 504.00 cl
0.00 0.00 504.00 504.00 cl
0.00 0.00 504.00 504.00 cl
0.00 0.00 504.00 504.00 cl
0.00 0.00 504.00 504.00 cl
0.00 0.00 504.00 504.00 cl
0.00 0.00 504.00 504.00 cl
0.00 0.00 504.00 504.00 cl
0.00 0.00 504.00 504.00 cl
/bg { 1 1 1 srgb } def
1 1 1 srgb
1.07 setlinewidth
[] 0 setdash
1 setlinecap
1 setlinejoin
10.00 setmiterlimit
0.00 0.00 504.00 504.00 r p3
0.00 0.00 504.00 504.00 cl
0.00 0.00 504.00 504.00 cl
0.00 0.00 504.00 504.00 cl
39.90 31.35 498.52 498.52 cl
/bg { 0.9216 0.9216 0.9216 srgb } def
39.90 31.35 458.62 467.17 r p2
1 1 1 srgb
0.53 setlinewidth
[] 0 setdash
0 setlinecap
1 setlinejoin
10.00 setmiterlimit
np
39.90 90.37 m
458.62 0 l
o
np
39.90 180.35 m
458.62 0 l
o
np
39.90 270.33 m
458.62 0 l
o
np
39.90 360.31 m
458.62 0 l
o
np
39.90 450.29 m
458.62 0 l
o
np
130.23 31.35 m
0 467.17 l
o
np
229.50 31.35 m
0 467.17 l
o
np
328.77 31.35 m
0 467.17 l
o
np
428.04 31.35 m
0 467.17 l
o
1.07 setlinewidth
[] 0 setdash
np
39.90 45.38 m
458.62 0 l
o
np
39.90 135.36 m
458.62 0 l
o
np
39.90 225.34 m
458.62 0 l
o
np
39.90 315.32 m
458.62 0 l
o
np
39.90 405.30 m
458.62 0 l
o
np
39.90 495.28 m
458.62 0 l
o
np
80.60 31.35 m
0 467.17 l
o
np
179.87 31.35 m
0 467.17 l
o
np
279.14 31.35 m
0 467.17 l
o
np
378.40 31.35 m
0 467.17 l
o
np
477.67 31.35 m
0 467.17 l
o
/bg { 0 0 0 srgb } def
0 0 0 srgb
0.71 setlinewidth
[] 0 setdash
1 setlinecap
60.74 52.58 1.95 c p3
60.74 81.37 1.95 c p3
120.30 59.78 1.95 c p3
120.30 124.57 1.95 c p3
140.16 102.97 1.95 c p3
160.01 81.37 1.95 c p3
179.87 110.17 1.95 c p3
179.87 138.96 1.95 c p3
179.87 167.76 1.95 c p3
199.72 106.57 1.95 c p3
199.72 146.16 1.95 c p3
219.57 95.77 1.95 c p3
219.57 117.37 1.95 c p3
219.57 131.76 1.95 c p3
219.57 146.16 1.95 c p3
239.43 138.96 1.95 c p3
239.43 167.76 1.95 c p3
239.43 167.76 1.95 c p3
239.43 210.95 1.95 c p3
259.28 138.96 1.95 c p3
259.28 174.95 1.95 c p3
259.28 261.33 1.95 c p3
259.28 333.32 1.95 c p3
279.14 117.37 1.95 c p3
279.14 138.96 1.95 c p3
279.14 239.74 1.95 c p3
298.99 160.56 1.95 c p3
298.99 189.35 1.95 c p3
318.84 160.56 1.95 c p3
318.84 189.35 1.95 c p3
318.84 225.34 1.95 c p3
338.70 196.55 1.95 c p3
338.70 246.94 1.95 c p3
338.70 318.92 1.95 c p3
338.70 347.71 1.95 c p3
358.55 174.95 1.95 c p3
358.55 210.95 1.95 c p3
358.55 290.13 1.95 c p3
378.40 160.56 1.95 c p3
378.40 218.14 1.95 c p3
378.40 232.54 1.95 c p3
378.40 246.94 1.95 c p3
378.40 275.73 1.95 c p3
418.11 282.93 1.95 c p3
437.97 239.74 1.95 c p3
457.82 297.33 1.95 c p3
457.82 376.51 1.95 c p3
457.82 380.11 1.95 c p3
457.82 477.29 1.95 c p3
477.67 351.31 1.95 c p3
0.00 0.00 504.00 504.00 cl
0.00 0.00 504.00 504.00 cl
0.00 0.00 504.00 504.00 cl
0.00 0.00 504.00 504.00 cl
0.00 0.00 504.00 504.00 cl
0.00 0.00 504.00 504.00 cl
/Font1 findfont 9 s
0.3020 0.3020 0.3020 srgb
34.96 42.15 (0) 1 0 t
34.96 132.13 (25) 1 0 t
34.96 222.11 (50) 1 0 t
34.96 312.09 (75) 1 0 t
34.96 402.07 (100) 1 0 t
34.96 492.05 (125) 1 0 t
0.00 0.00 504.00 504.00 cl
0.00 0.00 504.00 504.00 cl
0.2000 0.2000 0.2000 srgb
1.07 setlinewidth
[] 0 setdash
0 setlinecap
1 setlinejoin
10.00 setmiterlimit
np
37.16 45.38 m
2.74 0 l
o
np
37.16 135.36 m
2.74 0 l
o
np
37.16 225.34 m
2.74 0 l
o
np
37.16 315.32 m
2.74 0 l
o
np
37.16 405.30 m
2.74 0 l
o
np
37.16 495.28 m
2.74 0 l
o
0.00 0.00 504.00 504.00 cl
0.00 0.00 504.00 504.00 cl
0.00 0.00 504.00 504.00 cl
0.00 0.00 504.00 504.00 cl
0.00 0.00 504.00 504.00 cl
0.00 0.00 504.00 504.00 cl
0.00 0.00 504.00 504.00 cl
0.00 0.00 504.00 504.00 cl
0.2000 0.2000 0.2000 srgb
1.07 setlinewidth
[] 0 setdash
0 setlinecap
1 setlinejoin
10.00 setmiterlimit
np
80.60 28.61 m
0 2.74 l
o
np
179.87 28.61 m
0 2.74 l
o
np
279.14 28.61 m
0 2.74 l
o
np
378.40 28.61 m
0 2.74 l
o
np
477.67 28.61 m
0 2.74 l
o
0.00 0.00 504.00 504.00 cl
0.00 0.00 504.00 504.00 cl
/Font1 findfont 9 s
0.3020 0.3020 0.3020 srgb
80.60 19.95 (5) .5 0 t
179.87 19.95 (10) .5 0 t
279.14 19.95 (15) .5 0 t
378.40 19.95 (20) .5 0 t
477.67 19.95 (25) .5 0 t
0.00 0.00 504.00 504.00 cl
0.00 0.00 504.00 504.00 cl
0.00 0.00 504.00 504.00 cl
0.00 0.00 504.00 504.00 cl
/Font1 findfont 11 s
0 0 0 srgb
269.21 7.67 (speed) .5 0 t
0.00 0.00 504.00 504.00 cl
0.00 0.00 504.00 504.00 cl
/Font1 findfont 11 s
0 0 0 srgb
15.57 264.93 (dist) .5 90 t
0.00 0.00 504.00 504.00 cl
0.00 0.00 504.00 504.00 cl
0.00 0.00 504.00 504.00 cl
0.00 0.00 504.00 504.00 cl
ep
%%Trailer
%%Pages: 1
%%EOF
